info:
  name: 2. Ver Proveedores
  type: http
  seq: 2

http:
  method: GET
  url: http://localhost:3000/proveedores?page=1&pageSize=10
  params:
    - name: page
      value: "1"
      type: query
    - name: pageSize
      value: "10"
      type: query
  auth:
    type: bearer
    token: eyJhbGciOiJIUzI1NiIsInR5cCI6IkpXVCJ9.eyJ1c2lkIjoiNDI4MzMxYmItYjg5Mi00YmZmLWI5ZGMtMjYyNjBjNjhlN2Y0IiwidXNlbWlkIjoiNGZmNGRiNmItZjE4Zi00ZWNkLTgzYjMtYjk5N2ZhNzdhMDFlIiwidXNyb2wiOiJqZWZlIiwiaWF0IjoxNzc5NTU3MDQwLCJleHAiOjE3Nzk1NzUwNDB9.WBGkGy8syiHWEib37kxklYmOn_757FfuErO6xVMfRAY

settings:
  encodeUrl: true
  timeout: 0
  followRedirects: true
  maxRedirects: 5

examples:
  - name: "[ 200 ] Response"
    description: Respuesta 200 del servidor cuando enviamos los parametros correctos.
    request:
      url: http://localhost:3000/proveedores?page=1&pageSize=10
      method: GET
      params:
        - name: page
          value: "1"
          type: query
        - name: pageSize
          value: "10"
          type: query
    response:
      status: 200
      statusText: OK
      headers:
        - name: content-security-policy
          value: "default-src 'self';base-uri 'self';font-src 'self' https: data:;form-action 'self';frame-ancestors 'self';img-src 'self' data:;object-src 'none';script-src 'self';script-src-attr 'none';style-src 'self' https: 'unsafe-inline';upgrade-insecure-requests"
        - name: cross-origin-opener-policy
          value: same-origin
        - name: cross-origin-resource-policy
          value: same-origin
        - name: origin-agent-cluster
          value: ?1
        - name: referrer-policy
          value: no-referrer
        - name: strict-transport-security
          value: max-age=31536000; includeSubDomains
        - name: x-content-type-options
          value: nosniff
        - name: x-dns-prefetch-control
          value: off
        - name: x-download-options
          value: noopen
        - name: x-frame-options
          value: SAMEORIGIN
        - name: x-permitted-cross-domain-policies
          value: none
        - name: x-xss-protection
          value: "0"
        - name: access-control-allow-origin
          value: "*"
        - name: content-type
          value: application/json; charset=utf-8
        - name: content-length
          value: "3717"
        - name: etag
          value: W/"e85-fV1BcKzIpWzhN34QC5kK4xCTRYg"
        - name: date
          value: Sat, 23 May 2026 17:49:16 GMT
        - name: connection
          value: keep-alive
        - name: keep-alive
          value: timeout=5
      body:
        type: json
        data: |-
          {
            "items": [
              {
                "provid": "ec48a999-ef52-4738-8dd9-563421ae43bf",
                "provemid": "4ff4db6b-f18f-4ecd-83b3-b997fa77a01e",
                "categoria": {
                  "ctgriaid": "85cdca30-3008-466b-b896-52d588cdda10",
                  "ctgnombre": "Pintura",
                  "ctgriadescripcion": null
                },
                "marca": {
                  "mrcid": "4ba16156-e626-4fe3-8b5c-0d8ab3f19674",
                  "mrcnombre": "Trupper"
                },
                "provnombre": "DeWalt Centro Historico 6",
                "provtelefono": "0984653471",
                "provcorreo": null,
                "provfchregistro": "2026-05-23T17:36:39.167Z",
                "provestado": "activo"
              },
              {
                "provid": "b7a8f3a6-1d2b-46ab-80dd-55405fad9f73",
                "provemid": "4ff4db6b-f18f-4ecd-83b3-b997fa77a01e",
                "categoria": {
                  "ctgriaid": "85cdca30-3008-466b-b896-52d588cdda10",
                  "ctgnombre": "Pintura",
                  "ctgriadescripcion": null
                },
                "marca": {
                  "mrcid": "4ba16156-e626-4fe3-8b5c-0d8ab3f19674",
                  "mrcnombre": "Trupper"
                },
                "provnombre": "DeWalt Centro Historico 4",
                "provtelefono": "0984653471",
                "provcorreo": null,
                "provfchregistro": "2026-05-23T17:35:45.470Z",
                "provestado": "activo"
              },
              {
                "provid": "96198cfb-423b-4a42-908a-aaac8d37b41d",
                "provemid": "4ff4db6b-f18f-4ecd-83b3-b997fa77a01e",
                "categoria": {
                  "ctgriaid": "85cdca30-3008-466b-b896-52d588cdda10",
                  "ctgnombre": "Pintura",
                  "ctgriadescripcion": null
                },
                "marca": null,
                "provnombre": "DeWalt Centro Historico 3",
                "provtelefono": "0984653471",
                "provcorreo": null,
                "provfchregistro": "2026-05-23T17:34:56.134Z",
                "provestado": "activo"
              },
              {
                "provid": "6200b2d4-71aa-4c58-9488-ede01c7b7f62",
                "provemid": "4ff4db6b-f18f-4ecd-83b3-b997fa77a01e",
                "categoria": {
                  "ctgriaid": "85cdca30-3008-466b-b896-52d588cdda10",
                  "ctgnombre": "Pintura",
                  "ctgriadescripcion": null
                },
                "marca": null,
                "provnombre": "DeWalt Centro Historico 2",
                "provtelefono": "0984653471",
                "provcorreo": null,
                "provfchregistro": "2026-05-23T17:30:47.960Z",
                "provestado": "activo"
              },
              {
                "provid": "a052ef32-3c4b-41da-871a-dfec99d8afa3",
                "provemid": "4ff4db6b-f18f-4ecd-83b3-b997fa77a01e",
                "categoria": {
                  "ctgriaid": "85cdca30-3008-466b-b896-52d588cdda10",
                  "ctgnombre": "Pintura",
                  "ctgriadescripcion": null
                },
                "marca": null,
                "provnombre": "DeWalt Centro Historico",
                "provtelefono": "0984653471",
                "provcorreo": null,
                "provfchregistro": "2026-05-23T17:29:01.621Z",
                "provestado": "activo"
              },
              {
                "provid": "a03fb872-6374-49c0-b2f9-701adcd7ab23",
                "provemid": "4ff4db6b-f18f-4ecd-83b3-b997fa77a01e",
                "categoria": null,
                "marca": null,
                "provnombre": "Tupper Centro Historico",
                "provtelefono": "0984653471",
                "provcorreo": null,
                "provfchregistro": "2026-05-23T17:26:07.555Z",
                "provestado": "activo"
              },
              {
                "provid": "43254fc1-9dca-4fbd-954d-04e5317ecd52",
                "provemid": "4ff4db6b-f18f-4ecd-83b3-b997fa77a01e",
                "categoria": null,
                "marca": null,
                "provnombre": "Tupper Centro",
                "provtelefono": "0984653471",
                "provcorreo": null,
                "provfchregistro": "2026-05-23T17:25:47.297Z",
                "provestado": "activo"
              },
              {
                "provid": "cba3bbbc-055d-45ad-8830-3052bcdff95a",
                "provemid": "4ff4db6b-f18f-4ecd-83b3-b997fa77a01e",
                "categoria": {
                  "ctgriaid": "2b3585d3-dd5e-4781-b6c2-89ceb296cf6b",
                  "ctgnombre": null,
                  "ctgriadescripcion": null
                },
                "marca": null,
                "provnombre": "Cemento Cemex Test 3",
                "provtelefono": null,
                "provcorreo": null,
                "provfchregistro": "2026-05-23T02:46:28.338Z",
                "provestado": "activo"
              },
              {
                "provid": "5a87b45c-bfc2-46c3-99a1-a2670665f2c2",
                "provemid": "4ff4db6b-f18f-4ecd-83b3-b997fa77a01e",
                "categoria": {
                  "ctgriaid": "2b3585d3-dd5e-4781-b6c2-89ceb296cf6b",
                  "ctgnombre": null,
                  "ctgriadescripcion": null
                },
                "marca": null,
                "provnombre": "Cemento Cemex Test 2",
                "provtelefono": null,
                "provcorreo": null,
                "provfchregistro": "2026-05-23T02:41:37.904Z",
                "provestado": "activo"
              },
              {
                "provid": "9f65d06e-1bb7-4321-ad72-1bffb083d326",
                "provemid": "4ff4db6b-f18f-4ecd-83b3-b997fa77a01e",
                "categoria": {
                  "ctgriaid": "2b3585d3-dd5e-4781-b6c2-89ceb296cf6b",
                  "ctgnombre": null,
                  "ctgriadescripcion": null
                },
                "marca": null,
                "provnombre": "Cemento Cemex Test",
                "provtelefono": null,
                "provcorreo": null,
                "provfchregistro": "2026-05-23T02:11:08.850Z",
                "provestado": "activo"
              }
            ],
            "page": 1,
            "pageSize": 10,
            "totalItems": 12,
            "totalPages": 2
          }

docs: |
  # GET /proveedores

  ## Descripción
  Obtiene el listado paginado de proveedores de la empresa del usuario autenticado.

  ## Autenticación
  Requiere token JWT en el header:

  `Authorization: Bearer <token>`

  ## Query Params (obligatorios)
  - `page`: número de página (entero positivo).
  - `pageSize`: cantidad de registros por página (entero positivo).

  Ejemplo:

  `GET /proveedores?page=1&pageSize=20`

  ## Respuesta Exitosa
  `200 OK`

  ```json
  {
    "items": [
      {
        "provid": "a052ef32-3c4b-41da-871a-dfec99d8afa3",
        "provemid": "4ff4db6b-f18f-4ecd-83b3-b997fa77a01e",
        "categoria": {
          "ctgriaid": "85cdca30-3008-466b-b896-52d588cdda10",
          "ctgnombre": "Pintura",
          "ctgriadescripcion": null
        },
        "marca": {
          "mrcid": "5d2f2f91-e1d9-4f3f-b2ad-35f54f9500b9",
          "mrcnombre": "Truper"
        },
        "provnombre": "DeWalt Centro Historico",
        "provtelefono": "0984653471",
        "provcorreo": null,
        "provfchregistro": "2026-05-23T17:29:01.621Z",
        "provestado": "activo"
      }
    ],
    "page": 1,
    "pageSize": 20,
    "totalItems": 5,
    "totalPages": 1
  }
  ```

  ## Comportamiento relevante
  - Solo retorna proveedores de la misma empresa del usuario autenticado.
  - La empresa del usuario autenticado debe estar activa.
  - El usuario autenticado debe estar activo.
  - Roles permitidos para este endpoint: `jefe` o `empleado`.
  - `categoria` y `marca` pueden ser `null` cuando el proveedor no tiene esas relaciones asignadas.

  ## Errores comunes
  - Token inválido o ausente: `401 Unauthorized`.
  - `page` o `pageSize` inválidos (no entero positivo): error de validación.
  - Usuario sin permisos para el endpoint: error de autorización.
