info:
  name: 2. Ver Empresas
  type: http
  seq: 2

http:
  method: GET
  url: http://163.245.192.54:3000/companies?page=1&pageSize=5
  params:
    - name: page
      value: "1"
      type: query
    - name: pageSize
      value: "5"
      type: query
  auth:
    type: bearer
    token: eyJhbGciOiJIUzI1NiIsInR5cCI6IkpXVCJ9.eyJ1c2lkIjoiMThmYzVmMGEtY2RiZS00NmZlLWE3ZWItYzAxOGMwNGFjYmNhIiwidXNlbWlkIjoiMWY1Zjc3Y2UtNWU2ZS00MjcwLWI2YjktNTRkM2M5NDUyNzQ0IiwidXNyb2wiOiJhZG1pbmlzdHJhZG9yIiwiaWF0IjoxNzc5NzIzOTg0LCJleHAiOjE3Nzk3NDE5ODR9.TW7aNMKBiEI7WC2pGL-UpRoXiKYO56QSC6RuqSpcm5s

settings:
  encodeUrl: true
  timeout: 0
  followRedirects: true
  maxRedirects: 5

examples:
  - name: "[ 200 ] Response"
    description: Esta es una repuesta correcta por parte de servidor cuando se envía los parametros corrector para listar las empresas.
    request:
      url: http://localhost:3000/companies?page=1&pageSize=5
      method: GET
      params:
        - name: page
          value: "1"
          type: query
        - name: pageSize
          value: "5"
          type: query
    response:
      status: 200
      statusText: OK
      headers:
        - name: content-security-policy
          value: "default-src 'self';base-uri 'self';font-src 'self' https: data:;form-action 'self';frame-ancestors 'self';img-src 'self' data:;object-src 'none';script-src 'self';script-src-attr 'none';style-src 'self' https: 'unsafe-inline';upgrade-insecure-requests"
        - name: cross-origin-opener-policy
          value: same-origin
        - name: cross-origin-resource-policy
          value: same-origin
        - name: origin-agent-cluster
          value: ?1
        - name: referrer-policy
          value: no-referrer
        - name: strict-transport-security
          value: max-age=31536000; includeSubDomains
        - name: x-content-type-options
          value: nosniff
        - name: x-dns-prefetch-control
          value: off
        - name: x-download-options
          value: noopen
        - name: x-frame-options
          value: SAMEORIGIN
        - name: x-permitted-cross-domain-policies
          value: none
        - name: x-xss-protection
          value: "0"
        - name: access-control-allow-origin
          value: "*"
        - name: content-type
          value: application/json; charset=utf-8
        - name: content-length
          value: "943"
        - name: etag
          value: W/"3af-5konAGipOYe6VtGwGYholrDxvRw"
        - name: date
          value: Mon, 18 May 2026 16:02:13 GMT
        - name: connection
          value: keep-alive
        - name: keep-alive
          value: timeout=5
      body:
        type: json
        data: |-
          {
            "items": [
              {
                "emid": "62bf9037-06e7-47fc-9fe9-31b244bec6a5",
                "emruc": "1780012345001",
                "emrznsocial": "Ferreteria Sur S.A.",
                "emcorreo": "ferreteriaSur@gmail.com",
                "emlogo": "http://localhost:3000/uploads/empresas/company.png",
                "emcodigo": "FS01",
                "emfchregistro": "2026-05-18T15:48:08.863Z",
                "emestado": "activo"
              },
              {
                "emid": "4ff4db6b-f18f-4ecd-83b3-b997fa77a01e",
                "emruc": "1709639106001",
                "emrznsocial": "Ferreconst Electro K y B",
                "emcorreo": "electrokyb@gmail.com",
                "emlogo": "http://localhost:3000/uploads/empresas/Postgresql.png",
                "emcodigo": "FE01",
                "emfchregistro": "2026-05-16T22:07:22.890Z",
                "emestado": "activo"
              },
              {
                "emid": "e2f7b231-fc3d-4010-9ec0-47ed08a34593",
                "emruc": "1754303699001",
                "emrznsocial": "Ferreteria Central S.A.",
                "emcorreo": "contacto@ferreteriacentral.com",
                "emlogo": "http://localhost:3000/uploads/empresas/company.png",
                "emcodigo": "FC01",
                "emfchregistro": "2026-05-16T21:53:03.384Z",
                "emestado": "activo"
              }
            ],
            "page": 1,
            "pageSize": 5,
            "totalItems": 3,
            "totalPages": 1
          }
  - name: "[ 200 ] Response Production"
    description: Respuesta 200 del servidor en producción cuando enviamos los parametros correctos.
    request:
      url: http://163.245.192.54:3000/companies?page=1&pageSize=5
      method: GET
      params:
        - name: page
          value: "1"
          type: query
        - name: pageSize
          value: "5"
          type: query
    response:
      status: 200
      statusText: OK
      headers:
        - name: content-security-policy
          value: "default-src 'self';base-uri 'self';font-src 'self' https: data:;form-action 'self';frame-ancestors 'self';img-src 'self' data:;object-src 'none';script-src 'self';script-src-attr 'none';style-src 'self' https: 'unsafe-inline';upgrade-insecure-requests"
        - name: cross-origin-opener-policy
          value: same-origin
        - name: cross-origin-resource-policy
          value: same-origin
        - name: origin-agent-cluster
          value: ?1
        - name: referrer-policy
          value: no-referrer
        - name: strict-transport-security
          value: max-age=31536000; includeSubDomains
        - name: x-content-type-options
          value: nosniff
        - name: x-dns-prefetch-control
          value: off
        - name: x-download-options
          value: noopen
        - name: x-frame-options
          value: SAMEORIGIN
        - name: x-permitted-cross-domain-policies
          value: none
        - name: x-xss-protection
          value: "0"
        - name: access-control-allow-origin
          value: "*"
        - name: content-type
          value: application/json; charset=utf-8
        - name: content-length
          value: "372"
        - name: etag
          value: W/"174-43TQRW60b3cYK+2c+gO4uay0pjs"
        - name: date
          value: Mon, 25 May 2026 16:35:02 GMT
        - name: connection
          value: keep-alive
        - name: keep-alive
          value: timeout=5
      body:
        type: json
        data: |-
          {
            "items": [
              {
                "emid": "a8300817-2a19-455e-9a36-d5b246f6da2d",
                "emruc": "1709639106001",
                "emrznsocial": "Ferreconst Electro K & B",
                "emcorreo": "electroK&B@gmail.com",
                "emlogo": "http://163.245.192.54:3000/uploads/empresas/Logo_Electro_K_y_B_BN.png",
                "emcodigo": "FE00",
                "emfchregistro": "2026-05-25T16:07:14.483Z",
                "emestado": "activo"
              }
            ],
            "page": 1,
            "pageSize": 5,
            "totalItems": 1,
            "totalPages": 1
          }

docs: |
  # GET /companies

  ## Descripción
  Obtiene el listado paginado de empresas.

  ## Autenticación
  Requiere token JWT en el header:

  `Authorization: Bearer <token>`

  ## Query Params (obligatorios)
  - `page`: número de página (entero positivo).
  - `pageSize`: cantidad de registros por página (entero positivo).

  Ejemplo:

  `GET /companies?page=1&pageSize=20`

  ## Respuesta Exitosa
  `200 OK`

  ```json
  {
    "items": [
      {
        "emid": "0f4c5bde-9a11-4c76-9b6a-2e0b58e9bc2a",
        "emruc": "1790012345001",
        "emrznsocial": "Ferreteria Central S.A.",
        "emcorreo": "contacto@ferreteriacentral.com",
        "emlogo": "https://api.tudominio.com/uploads/empresas/company.png",
        "emcodigo": "FC01",
        "emfchregistro": "2026-05-17T15:20:10.000Z",
        "emestado": "activo",
        "empadre": false
      }
    ],
    "page": 1,
    "pageSize": 20,
    "totalItems": 57,
    "totalPages": 3
  }
  ```

  ## Comportamiento relevante
  - El backend transforma `emlogo` a URL pública completa.
  - Si no hay registros en la página solicitada, `items` puede venir vacío.

  ## Errores comunes
  - Token inválido o ausente: `401 Unauthorized`.
  - `page` o `pageSize` inválidos (no entero positivo): error en validación de service.
